<svg width="24" height="24" viewBox="0 0 24 24" fill="none" xmlns="http://www.w3.org/2000/svg">
<g clip-path="url(#clip0_129_3356)">
<path d="M7.32666 19.7496H16.6723" stroke="#171321" stroke-width="0.999907" stroke-linecap="round" stroke-linejoin="round"/>
<path d="M7.8114 21.6335H16.1874" stroke="#171321" stroke-width="0.999907" stroke-linecap="round" stroke-linejoin="round"/>
<path d="M8.05432 17.8633H15.9455" stroke="#171321" stroke-width="0.999907" stroke-linecap="round" stroke-linejoin="round"/>
<path d="M20.363 8.84401C20.3636 7.40948 19.9952 5.99891 19.2933 4.74785C18.5913 3.49679 17.5794 2.4473 16.3547 1.70024C15.1301 0.95318 13.7339 0.533657 12.3003 0.48199C10.8667 0.430323 9.44385 0.748248 8.1686 1.40521C6.89334 2.06218 5.80849 3.0361 5.0183 4.23338C4.22811 5.43066 3.75914 6.81106 3.65646 8.24191C3.55379 9.67276 3.82085 11.106 4.432 12.4038C5.04314 13.7017 5.97782 14.8205 7.14621 15.6528C7.42337 15.8463 7.65031 16.1031 7.80811 16.402C7.96591 16.7009 8.05001 17.0332 8.05341 17.3712V19.5744C8.05341 20.6208 8.46911 21.6244 9.20905 22.3644C9.94899 23.1043 10.9526 23.52 11.999 23.52V23.52C13.0454 23.52 14.049 23.1043 14.789 22.3644C15.5289 21.6244 15.9446 20.6208 15.9446 19.5744V17.3712C15.9472 17.0345 16.0302 16.7033 16.1867 16.4052C16.3433 16.1072 16.5689 15.8508 16.8446 15.6576C17.9328 14.8856 18.8201 13.8641 19.4323 12.6786C20.0444 11.4931 20.3636 10.1782 20.363 8.84401V8.84401Z" stroke="#171321" stroke-width="0.999907" stroke-linecap="round" stroke-linejoin="round"/>
<path d="M12.6985 3.52563L9.3241 9.66483L11.7481 9.80403L11.5057 14.76L15.1825 8.01123L12.7585 7.86963L12.6985 3.52563Z" stroke="#171321" stroke-width="0.999907" stroke-linecap="round" stroke-linejoin="round"/>
</g>
<defs>
<clipPath id="clip0_129_3356">
<rect width="24" height="24" fill="white"/>
</clipPath>
</defs>
</svg>
