<svg width="32" height="32" viewBox="0 0 32 32" fill="none" xmlns="http://www.w3.org/2000/svg">
<circle cx="16" cy="16" r="15.5" fill="#E8E7EB" stroke="#7759C2"/>
<path d="M16 16L16 32C24.8366 32 32 24.8366 32 16L16 16Z" fill="#E3D6FF"/>
<circle cx="16" cy="16" r="15.5" stroke="#7759C2"/>
<path d="M16 16H32C32 7.16344 24.8366 0 16 0V16Z" fill="#7759C2"/>
<line x1="16.5" y1="31" x2="16.5" y2="15" stroke="#7759C2"/>
<line x1="22.7348" y1="30.2652" x2="16.7348" y2="24.2652" stroke="#7759C2" stroke-width="0.75"/>
<path d="M20.5 31L16.7349 27.2651" stroke="#7759C2" stroke-width="0.75"/>
<line x1="17.7348" y1="31.2652" x2="16.7348" y2="30.2652" stroke="#7759C2" stroke-width="0.75"/>
<line x1="24.7348" y1="29.2652" x2="16.7348" y2="21.2652" stroke="#7759C2" stroke-width="0.75"/>
<line x1="26.1723" y1="27.531" x2="16.7373" y2="18.2676" stroke="#7759C2" stroke-width="0.75"/>
<line x1="27.7348" y1="26.2652" x2="16.9776" y2="15.5078" stroke="#7759C2" stroke-width="0.75"/>
<line x1="28.7371" y1="24.2674" x2="18.394" y2="14.0957" stroke="#7759C2" stroke-width="0.75"/>
<path d="M30 22.5L19.8107 12.684" stroke="#7759C2" stroke-width="0.75"/>
<line x1="30.7401" y1="20.2703" x2="21.8112" y2="11.6845" stroke="#7759C2" stroke-width="0.75"/>
<path d="M31.4999 18L22.8112 9.68454" stroke="#7759C2" stroke-width="0.75"/>
<line x1="25.3744" y1="15.5962" x2="21.1317" y2="11.3535" stroke="#7759C2"/>
</svg>
